…
``` r
# ROW_NUMBER() OVER (PARITION BY col_x ORDER BY col_y) AS index
row_number_over_partition_by <- function(data, .partition_by, .order_by) {
    data %>%
        group_by(across({{ .partition_by }})) %>%
        mutate(index = row_number({{ .order_by }})) %>%
        ungroup()
}
mtcars %>% 
    select(cyl, mpg) %>%
    row_number_over_partition_by(cyl, mpg) %>%
    arrange(cyl, mpg)
```

    ## # A tibble: 32 x 3
    ##      cyl   mpg index
    ##    <dbl> <dbl> <int>
    ##  1     4  21.4     1
    ##  2     4  21.5     2
    ##  3     4  22.8     3
    ##  4     4  22.8     4
    ##  5     4  24.4     5
    ##  6     4  26       6
    ##  7     4  27.3     7
    ##  8     4  30.4     8
    ##  9     4  30.4     9
    ## 10     4  32.4    10
    ## # … with 22 more rows

``` r
mtcars %>% 
    select(cyl, mpg) %>%
    row_number_over_partition_by(cyl, desc(mpg)) %>%
    arrange(cyl, mpg)
```

    ## # A tibble: 32 x 3
    ##      cyl   mpg index
    ##    <dbl> <dbl> <int>
    ##  1     4  21.4    11
    ##  2     4  21.5    10
    ##  3     4  22.8     8
    ##  4     4  22.8     9
    ##  5     4  24.4     7
    ##  6     4  26       6
    ##  7     4  27.3     5
    ##  8     4  30.4     3
    ##  9     4  30.4     4
    ## 10     4  32.4     2
    ## # … with 22 more rows
…
